…
# export as three different file types
rio::export(by_species$setosa, "setosa.csv")
rio::export(by_species$versicolor, "versicolor.xlsx")
rio::export(by_species$virginica, "virginica.sav")

# import them all back in as a single data frame
d <- read_files()
d
#> # A tibble: 150 x 5
#>    file   Sepal.Length Sepal.Width Petal.Length Petal.Width
#>    <chr>         <dbl>       <dbl>        <dbl>       <dbl>
#>  1 setosa     5.100000         3.5          1.4         0.2
#>  2 setosa     4.9              3            1.4         0.2
#>  3 setosa     4.7              3.2          1.3         0.2
#>  4 setosa     4.600000         3.1          1.5         0.2
#>  5 setosa     5                3.6          1.4         0.2
#>  6 setosa     5.4              3.9          1.7         0.4
#>  7 setosa     4.600000         3.4          1.4         0.3
#>  8 setosa     5                3.4          1.5         0.2
#>  9 setosa     4.4              2.9          1.4         0.2
#> 10 setosa     4.9              3.1          1.5         0.1
#> # ... with 140 more rows
…
``` r
library(dplyr)
library(sundry)
storms %>% 
  descrips(wind, pressure)
#> # A tibble: 2 x 6
#>   variable     n   min   max      mean       sd
#>   <chr>    <dbl> <dbl> <dbl>     <dbl>    <dbl>
#> 1 pressure 10010   882  1022 992.1390  19.51678
#> 2 wind     10010    10   160  53.49500 26.21387

storms %>% 
  group_by(year) %>% 
  descrips(wind, pressure)
#> # A tibble: 82 x 7
#>     year variable     n   min   max       mean        sd
#>    <dbl> <chr>    <dbl> <dbl> <dbl>      <dbl>     <dbl>
#>  1  1975 pressure    86   963  1014  994.6279  15.20530 
#>  2  1975 wind        86    20   100   50.87209 23.60448 
#>  3  1976 pressure    52   957  1012  988.7692  15.25678 
#>  4  1976 wind        52    20   105   59.90385 24.78319 
#>  5  1977 pressure    53   926  1015  995.3585  20.42443 
#>  6  1977 wind        53    20   150   53.96226 29.55371 
#>  7  1978 pressure    54   980  1012 1005.833    6.635383
#>  8  1978 wind        54    20    80   40.46296 13.88186 
#>  9  1979 pressure   301   924  1014  994.8372  19.87369 
#> 10  1979 wind       301    15   150   48.67110 30.31603 
#> # ... with 72 more rows

storms %>% 
  group_by(year) %>% 
  descrips(wind, pressure,
           .funs = funs(qtile25 = quantile(., 0.25),
                        median, 
                        qtile75 = quantile(., 0.75)))
#> # A tibble: 82 x 5
#>     year variable qtile25 median qtile75
#>    <dbl> <chr>      <dbl>  <dbl>   <dbl>
#>  1  1975 pressure  984.5   997   1010.75
#>  2  1975 wind       25      52.5   65   
#>  3  1976 pressure  978.5   992   1000.25
#>  4  1976 wind       38.75   60     80   
#>  5  1977 pressure  994    1001   1010   
#>  6  1977 wind       30      45     70   
#>  7  1978 pressure 1006    1007   1009   
#>  8  1978 wind       30      40     45   
#>  9  1979 pressure  988    1002   1008   
#> 10  1979 wind       25      35     65   
#> # ... with 72 more rows
```
…
This function is similar to `janitor::remove_empty_rows`, but allows you
to pass a set of columns (rather than looking across all columns). Rows
will be removed that are missing across all
columns.

``` r
d <- rio::import("http://www.oregon.gov/ode/educator-resources/assessment/TestResults2017/pagr_schools_ela_tot_ecd_ext_gnd_lep_1617.xlsx",
            setclass = "tbl_df",
            na = c("--", "*")) %>% 
  janitor::clean_names()

d %>% 
  select(district_id, number_level_4:percent_level_1)
#> # A tibble: 23,760 x 9
#>    district_id number_level_4 percent_level_4 number_level_3
#>          <dbl> <chr>          <chr>           <chr>         
#>  1        2063 <NA>           <NA>            <NA>          
#>  2        2063 <NA>           <NA>            <NA>          
#>  3        2063 <NA>           <NA>            <NA>          
#>  4        2063 <NA>           <NA>            <NA>          
#>  5        2063 <NA>           <NA>            <NA>          
#>  6        2063 <NA>           <NA>            <NA>          
#>  7        2063 <NA>           <NA>            <NA>          
#>  8        2063 <NA>           <NA>            <NA>          
#>  9        2063 <NA>           <NA>            <NA>          
#> 10        2063 <NA>           <NA>            <NA>          
#> # ... with 23,750 more rows, and 5 more variables: percent_level_3 <chr>,
#> #   number_level_2 <chr>, percent_level_2 <chr>, number_level_1 <chr>,
#> #   percent_level_1 <chr>
```

The data above have missing data data across many columns, but every row
has at least some valid entries. Suppose I was only interested in data
on schools with proficiency data.

``` r
d %>% 
  rm_empty_rows(number_level_4:percent_level_1) %>% 
  select(district_id, number_level_4:percent_level_1) 
#> # A tibble: 15,081 x 9
#>    district_id number_level_4 percent_level_4    number_level_3
#>          <dbl> <chr>          <chr>              <chr>         
#>  1        2113 5              45.5               5             
#>  2        2113 5              29.4               8             
#>  3        2113 2              20                 5             
#>  4        2113 5              33.299999999999997 7             
#>  5        2113 2              20                 5             
#>  6        2113 0              0                  6             
#>  7        2113 7              53.8               5             
#>  8        2113 5              41.7               4             
#>  9        2113 5              41.7               6             
#> 10        2113 -              -                  -             
#> # ... with 15,071 more rows, and 5 more variables: percent_level_3 <chr>,
#> #   number_level_2 <chr>, percent_level_2 <chr>, number_level_1 <chr>,
#> #   percent_level_1 <chr>
```
…
storms %>%
  group_by(year) %>%
  filter_by_funs(wind, funs(min, median, max)) %>%
  arrange(year)
#> # A tibble: 1,260 x 14
#> # Groups:   year [41]
#>    fun    name   year month   day  hour   lat  long status  category  wind
#>    <chr>  <chr> <dbl> <dbl> <int> <dbl> <dbl> <dbl> <chr>   <ord>    <int>
#>  1 min    Caro…  1975     9     1     6  25.2 -98.7 tropic… -1          20
#>  2 min    Caro…  1975     9     1    12  25.3 -99   tropic… -1          20
#>  3 max    Caro…  1975     8    31     0  24   -97   hurric… 3          100
#>  4 max    Caro…  1975     8    31     6  24.1 -97.5 hurric… 3          100
#>  5 min    Glor…  1976     9    26    12  23   -58   tropic… -1          20
#>  6 min    Glor…  1976     9    26    18  23.7 -58.1 tropic… -1          20
#>  7 median Belle  1976     8    10     6  41   -73.2 tropic… 0           60
#>  8 median Glor…  1976     9    28     6  27.5 -58.2 tropic… 0           60
#>  9 median Glor…  1976     9    28    12  27.8 -58.6 tropic… 0           60
#> 10 median Glor…  1976     9    28    18  28.2 -59   tropic… 0           60
#> # ... with 1,250 more rows, and 3 more variables: pressure <int>,
#> #   ts_diameter <dbl>, hu_diameter <dbl>
```
…
